INDEX VERSION 1.126+C:\Users\Galen\Desktop\mepbm\parser\.metadata\.plugins\org.eclipse.jdt.core
3140045379.index
2461431851.index
1641225500.index
529437705.index
4050959524.index
3291799386.index
1962638457.index
848959954.index
2479909925.index
2375370348.index
4284093014.index
989118166.index
